{"items":[{"id":330,"title":"Neuralink 终于有了真正的竞争对手：Paradromics 刚刚在第一位患者体内植入了大脑芯片","summary":"Neuralink 主导脑芯片领域已经有两年了。现在，它面临着一个严峻的挑战者，并且有自己的患者。奥斯汀神经技术公司 Paradromics 表示，该公司已将其 Connexus 脑机接口植入 FDA 批准的临床研究的第一位参与者中。病人","content":"Neuralink has dominated the brain-chip story for two years. It now has a serious challenger with a patient of its own.\n\nParadromics, an Austin neurotech firm, has implanted its Connexus brain-computer interface in the first participant of its FDA-approved clinical study, the company said. The patient, a Michigan woman who has lost the ability to speak clearly due to motor neuron disease, was operated on at University of Michigan Health and will be followed for six years.\n\n“For people living with severe motor impairment, the ability to communicate is central to agency, identity, and connection,” said founder and chief executive Matt Angle.\n\nHow a speech chip actually works\n\nConnexus does not repair the body. The patient attempts to speak, the implant records the neural activity behind that attempt, and software translates it into text or synthesised speech on a computer.\n\nThe hardware is striking: a dime-sized device that sits on the surface of the brain with 421 platinum-iridium microwires, each thinner than half a human hair, feeding into a transceiver implanted in the chest that beams data wirelessly through the skin.\n\nTNW City Coworking space - Where your best work happens\n\nA workspace designed for growth, collaboration, and endless networking opportunities in the heart of tech.\n\nParadromics claims an industry-leading data rate, the measure of how much it can pull from the brain per second.\n\nThis is the company’s first chronic implant, the kind meant to stay in. It builds on a brief test in 2025, when the device was placed and removed during another patient’s surgery just to prove it could safely record.\n\nThe race it is running, against the kind of speech-decoding work already restoring voices in research settings, also includes Neuralink, Synchron and Precision Neuroscience.\n\nThe part to watch\n\nThe caveats matter. This is one early-feasibility patient, the device has not yet been shown working, and meaningful results will come over months and years, not days.\n\nThere is also the bigger question Paradromics raises itself. Its stated roadmap goes well beyond medicine, to “direct AI interaction”, advanced prosthetics and “human enhancement”. Angle argues that building devices able to enhance people “doesn’t have to be ethically fraught” but “has to be addressed”.\n\nFor now, though, the goal is narrower and more human: helping someone who cannot speak say what she means.\n\nGet the TNW newsletter\n\nGet the most important tech news in your inbox each week.","source":"TNW","category":"科技","lang":"en","image_url":"https://media.thenextweb.com/2026/06/BCI-IMPLANT-BCI13115.avif","published_at":"2026-06-17T13:41:14.000Z","collected_at":"2026-06-17T14:28:07.466Z","score":60,"is_curated":1,"source_count":1},{"id":332,"title":"一家制造进攻性网络武器的初创公司刚刚成为价值 10 亿美元的独角兽","summary":"大多数网络安全初创公司都出售防护罩。 20 人卖出了这把剑，而投资者对它的估值仅为 10 亿美元。据 Axios 报道，该公司自称是美国第一家由风险投资支持的网络战公司，已筹集了由 Accel 领投的 1 亿美元 B 轮融资。本轮融资由 Point72 Ventures 投资，含咖啡因","content":"Most cybersecurity startups sell shields. Twenty sells the sword, and investors just valued that at $1bn.\n\nThe company, which describes itself as America’s first venture-backed cyber warfare firm, has raised a $100mn Series B led by Accel, Axios reported. The round, with Point72 Ventures, Caffeinated Capital and Friends & Family Capital also taking part, brings its total funding to $138mn.\n\nWhat makes it stand out is not the money but the mission. “We were founded to industrialize cyber warfare,” chief executive Joseph Lin said, and he means the offensive kind.\n\nSelling attack, not just defence\n\nThat is rare, and deliberately loud. The cyber industry overwhelmingly markets defence, detecting intrusions and patching holes, like the AI tools that probe a company’s own attack surface. Twenty instead builds AI-enabled systems meant to carry out operations against adversaries, and says it already has contracts with the US military and intelligence community, though it declined to give detail.\n\nTNW City Coworking space - Where your best work happens\n\nA workspace designed for growth, collaboration, and endless networking opportunities in the heart of tech.\n\nIt is not a fringe outfit. Its $38mn Series A last year drew In-Q-Tel, the CIA-linked fund, and its team includes veterans of US Cyber Command and the NSA. Lin testified before the House Homeland Security Committee earlier this year.\n\nWashington is asking for offence\n\nThe timing is the real story. Lin argues deterrence in cyberspace only works when adversaries face “credible consequences”, pointing to Chinese pre-positioning on US infrastructure and Russian activity around the war in Ukraine.\n\nAnd he says the politics have turned his way. “For the first time, you’re seeing an administration call for offensive cyber to be a national priority,” he said, a shift the Trump administration has signalled across its national-security tech agenda.\n\nThe uncomfortable part\n\nA venture-funded company building machine-speed offensive cyber weapons is exactly the kind of thing that used to live quietly inside governments. Doing it at startup pace, for profit, raises questions about escalation, oversight and who decides when a privately built capability gets used.\n\nFor now, those questions sit behind undisclosed contracts and deliberately vague descriptions of what the software does. What is clear is that ‘cyber warfare’ is no longer a phrase investors avoid, it is one they are now willing to value at a billion dollars.\n\nGet the TNW newsletter\n\nGet the most important tech news in your inbox each week.","source":"TNW","category":"科技","lang":"en","image_url":"https://media.thenextweb.com/2026/06/Twenty-team.avif","published_at":"2026-06-17T13:34:00.000Z","collected_at":"2026-06-17T14:28:08.147Z","score":60,"is_curated":1,"source_count":1},{"id":24,"title":"基于 Facebook 帖子的人工智能搜索？可能会出什么问题？","summary":"在更多地方进行更多人工智能搜索。如今，人工智能在将事情放在你的日历上相当可靠，但它还没有完全解决“这个周末我应该做什么？”这一相关且最重要的问题。 Meta 在搜索中的新人工智能模式可能是一个有用的工具 - 如果它学会停止获取","content":"Meta’s AI Mode search might actually be useful if it got more things right.\n\nMeta’s AI Mode search might actually be useful if it got more things right.\n\nAI is pretty reliable at putting things on your calendar these days, but it hasn’t quite cracked answering the related and all-important question of “What should I do this weekend?” Meta’s new AI Mode in search could be a useful tool — if it ever learns to stop getting stuff wrong.\n\nAI Mode is a new option when you hit the search bar in the Facebook app. It’s designed to tackle complex queries — much like AI Mode in Google Search. But Meta’s version draws on public posts across Meta apps — including Facebook Groups and Instagram Reels — to inform its results. That could be useful, considering the neighborhood groups and local organizations around me that still use Facebook pretty actively to communicate about upcoming events.\n\nBut also, “search grounded in stuff people post on Facebook” sounds like a waking nightmare. Have you used Facebook lately? Your weird acquaintance from high school who thinks the Earth is flat has. Meta is pitching the feature as a tool to help you plan trips and find fun things to do, but given the data pool it’s drawing from, that could go south fast. Thankfully, I do have some comforting news: Its trip-planning abilities are mixed, but in my initial testing, I’ve had a hard time getting it to deliver true misinformation.\n\nHave you used Facebook lately? Your weird acquaintance from high school who thinks the Earth is flat has\n\nI couldn’t get it to spit out misinformation about vaccines causing autism, who did 9/11, or whether elections in the US are rigged. I did manage to get it to give me a dodgy answer about whether the January 6th rioters at the Capitol were “patriots.” It started with “Here is the essay you requested,” which is deeply funny. What followed was a pretty dubious theoretical justification of the actions of the rioters that day. You know, the kind of thing your weird uncle might post on Facebook. I couldn’t get it to pursue the idea any further; a follow-up question resulted in an “I can’t help you with that,” which was for the best.\n\nOn the more fun and practical side, I tried using the tool as intended, with the same prompt used in Meta’s press release: “Summer escapes near me.” It pulled in suggestions from some influencer-type Facebook posts, including an obviously AI-generated map of Puget Sound that put Snohomish in two distant locations. But the basic recommendations were solid, if obvious: Whidbey Island, Mount Rainier, hikes in the Cascades.\n\nThings got frustrating with more specific requests. I asked for things to do nearby, and it suggested a swim at the community pool — noting it would be closed over the weekend. It cited a post on the pool’s Facebook page, and the hours listed on the same page. But when I checked the source, nothing suggested that the pool would be closed over the weekend — and the cited post doesn’t seem to exist. The pool...","source":"The Verge","category":"科技","lang":"en","image_url":"https://platform.theverge.com/wp-content/uploads/sites/2/2026/06/DSC03787_processed.jpg?quality=90&strip=all&crop=0%2C10.723165084465%2C100%2C78.55366983107&w=1200","published_at":"2026-06-17T13:30:00.000Z","collected_at":"2026-06-17T14:27:08.993Z","score":60,"is_curated":1,"source_count":1}],"total":253,"page":1,"limit":3,"pages":85}
